Evolution of Political Discourse: Analyzing Thematic Trends in Spanish Investiture Speeches (1979-2023)
…
    filter, lag

The following objects are masked from 'package:base':

    intersect, setdiff, setequal, union

# 1979 starts in 1 and increases one period every 4 years
# 4 years because is the length of a legislature
vars %>% 
  as_tibble() %>%
  mutate(Period = ((vars$year - 1979) %/% 4) + 1) -> vars_period

vars_period %>% select(year, Period)

# A tibble: 26 × 2
    year Period
   <int>  <dbl>
 1  1979      1
 2  1981      1
 3  1981      1
 4  1982      1
 5  1986      2
 6  1989      3
 7  1993      4
 8  1996      5
 9  2000      6
10  2004      7
# ℹ 16 more rows
…
# top topics for each document
top_topics(tmod_keyatm)

# A tibble: 26 × 2
   Rank1          Rank2         
   <chr>          <chr>         
 1 7_Constitution 1_Economy     
 2 3_Welfare      7_Constitution
 3 11_Government  7_Constitution
 4 7_Constitution 3_Welfare     
 5 Other_1        3_Welfare     
 6 3_Welfare      Other_1       
 7 1_Economy      8_Territorial 
 8 7_Constitution 8_Territorial 
 9 1_Economy      8_Territorial 
10 7_Constitution 8_Territorial 
# ℹ 16 more rows
…
